…
    # List available databases
    intchron_hosts()
    #> # A tibble: 5 x 2
    #>   host     database                            
    #>   <chr>    <chr>                               
    #> 1 egyptdb  Egyptian Radiocarbon Database       
    #> 2 intimate INTIMATE Database                   
    #> 3 nrcf     NERC Radiocarbon Facility (Oxford)  
    #> 4 oxa      Oxford Radiocarbon Accelerator Unit 
    #> 5 sadb     Southern Africa Radiocarbon Database

    # Query IntChron
    intchron(c("oxa", "nrcf"), countries = "Jordan")
    #> # A tibble: 156 x 18
    #>    record_site record_country record_name record_longitude record_latitude
    #>    <chr>       <chr>          <chr>                  <dbl>           <dbl>
    #>  1 Araq ed-Du… Jordan         Araq ed-Du…             32.3            35.7
    #>  2 Ayn Qasiyah Jordan         Ayn Qasiyah             36.8            31.8
    #>  3 Ayn Qasiyah Jordan         Ayn Qasiyah             36.8            31.8
    #>  4 Ayn Qasiyah Jordan         Ayn Qasiyah             36.8            31.8
    #>  5 Ayn Qasiyah Jordan         Ayn Qasiyah             36.8            31.8
    #>  6 Ayn Qasiyah Jordan         Ayn Qasiyah             36.8            31.8
    #>  7 Azraq 31    Jordan         Azraq 31                36.8            31.8
    #>  8 Azraq 31    Jordan         Azraq 31                36.8            31.8
    #>  9 Azraq 31    Jordan         Azraq 31                36.8            31.8
    #> 10 Burqu' 02   Jordan         Burqu' 02               37.8            32.7
    #> # … with 146 more rows, and 13 more variables: series_type <chr>,
    #> #   labcode <chr>, longitude <dbl>, latitude <dbl>, sample <chr>,
    #> #   material <chr>, species <chr>, d13C <dbl>, r_date <int>,
    #> #   r_date_sigma <int>, qual <chr>, F14C <dbl>, F14C_sigma <dbl>
