List available databases and countries on IntChron — intchron_hosts • rintchron
…
#> # A tibble: 5 x 2
#>   host     database                            
#>   <chr>    <chr>                               
#> 1 egyptdb  Egyptian Radiocarbon Database       
#> 2 intimate INTIMATE Database                   
#> 3 nrcf     NERC Radiocarbon Facility (Oxford)  
#> 4 oxa      Oxford Radiocarbon Accelerator Unit 
#> 5 sadb     Southern Africa Radiocarbon Database

# List available countries
intchron_countries()

#> # A tibble: 109 x 1
#>    country   
#>    <chr>     
#>  1 Albania   
#>  2 Algeria   
#>  3 Andorra   
#>  4 Angola    
#>  5 Antarctica
#>  6 Argentina 
#>  7 Armenia   
#>  8 Australia 
#>  9 Austria   
#> 10 Bahrain   
#> # … with 99 more rows
…
