Basic usage • rintchron
…
intchron_hosts()
#> # A tibble: 5 x 2
#>   host     database                            
#>   <chr>    <chr>                               
#> 1 egyptdb  Egyptian Radiocarbon Database       
#> 2 intimate INTIMATE Database                   
#> 3 nrcf     NERC Radiocarbon Facility (Oxford)  
#> 4 oxa      Oxford Radiocarbon Accelerator Unit 
#> 5 sadb     Southern Africa Radiocarbon Database

The first argument to intchron() should be a the ‘host’ code of the database you want to query, or a vector of hosts to query more than one (e.g. intchron(hosts = c("oxa", "nrcf"))). For example, to return the entire South Africa Radiocarbon Database (‘sadb’):

intchron("sadb")
#> # A tibble: 2,575 x 23
#>    record_site record_country record_name record_longitude record_latitude
#>    <chr>       <chr>          <chr>                  <dbl>           <dbl>
#>  1 Basinghall  Botswana       Basinghall              27.1           -23.5
#>  2 Basinghall  Botswana       Basinghall              27.1           -23.5
#>  3 Basinghall  Botswana       Basinghall              27.1           -23.5
#>  4 Basinghall  Botswana       Basinghall              27.1           -23.5
#>  5 Basinghall  Botswana       Basinghall              27.1           -23.5
#>  6 Basinghall  Botswana       Basinghall              27.1           -23.5
#>  7 Bisoli      Botswana       Bisoli                  27.6           -21.0
#>  8 Bisoli      Botswana       Bisoli                  27.6           -21.0
#>  9 Bobonong R… Botswana       Bobonong R…             28.8           -22.2
#> 10 Bosutswe    Botswana       Bosutswe                26.6           -22.0
#> # … with 2,565 more rows, and 18 more variables: series_type <chr>,
#> #   labcode <chr>, country <chr>, region <chr>, longitude <dbl>,
#> #   latitude <dbl>, site <chr>, sample <chr>, material <chr>, species <chr>,
#> #   d13C <dbl>, r_date <int>, r_date_sigma <int>, qual <chr>,
#> #   environment <chr>, context <chr>, period <chr>, subperiod <chr>

You can further refine your query by specifying the locations you are interested in with the countries and sites parameters. Like hosts, these can also accept a vector of locations. For example, to download records from Jordan in the ORAU (oxa) and NERC-RF (nrcf) databases:

jordan <- intchron(c("oxa", "nrcf"), countries = "Jordan")
jordan
#> # A tibble: 156 x 18
#>    record_site record_country record_name record_longitude record_latitude
#>    <chr>       <chr>          <chr>                  <dbl>           <dbl>
#>  1 Araq ed-Du… Jordan         Araq ed-Du…             32.3            35.7
#>  2 Ayn Qasiyah Jordan         Ayn Qasiyah             36.8            31.8
#>  3 Ayn Qasiyah Jordan         Ayn Qasiyah             36.8            31.8
#>  4 Ayn Qasiyah Jordan         Ayn Qasiyah             36.8            31.8
#>  5 Ayn Qasiyah Jordan         Ayn Qasiyah             36.8            31.8
#>  6 Ayn Qasiyah Jordan         Ayn Qasiyah             36.8            31.8
#>  7 Azraq 31    Jordan         Azraq 31                36.8            31.8
#>  8 Azraq 31    Jordan         Azraq 31                36.8            31.8
#>  9 Azraq 31    Jordan         Azraq 31                36.8            31.8
#> 10 Burqu' 02   Jordan         Burqu' 02               37.8            32.7
#> # … with 146 more rows, and 13 more variables: series_type <chr>,
#> #   labcode <chr>, longitude <dbl>, latitude <dbl>, sample <chr>,
#> #   material <chr>, species <chr>, d13C <dbl>, r_date <int>,
#> #   r_date_sigma <int>, qual <chr>, F14C <dbl>, F14C_sigma <dbl>
…
